2 Yu-gi-oh! TCG Inferential Analysis | Data Analysis Portfolio
…
  mutate(card_supports = if_else(card_supports %in% c("D/D", "D/D/D", "D/", "D/D/D/D/D"), "DDD", card_supports)) %>%
  separate_rows(card_supports, sep = "/") %>%
  mutate(card_supports = trimws(card_supports)) %>%
  # group by archetype and count occurrences
  group_by(card_supports) %>%
  summarize(count = n()) %>%
  # adding a sum of "D" and "DDD" rows and assign the result to only "DDD"
  mutate(card_supports = if_else(card_supports == "D", "DDD", card_supports)) %>%
  group_by(card_supports) %>%
  summarize(count = sum(count)) %>%
  # sort by count in descending order
  arrange(desc(count))
archetypes

## # A tibble: 481 × 2
##    card_supports   count
##    <chr>           <int>
##  1 Crystal Beast     200
##  2 Elemental HERO    197
##  3 Blackwing         189
##  4 DDD               156
##  5 Six Samurai       152
##  6 Destiny HERO      133
##  7 Performapal       129
##  8 HERO              117
##  9 Gladiator Beast   111
## 10 Lightsworn         95
## # … with 471 more rows
…
  separate_rows(card_supports, sep = "/") %>%
  mutate(card_supports = trimws(card_supports)) %>%
  # grouping by archetype and counting occurrences
  group_by(card_supports) %>%
  summarize(count = n()) %>%
  # adding "D" and "DDD" to only "DDD" 
  mutate(card_supports = if_else(card_supports == "D", "DDD", card_supports)) %>%
  group_by(card_supports) %>%
  summarize(count = sum(count)) %>%
    top_n(20, count) %>%
  # sort by count in descending order
  arrange(desc(count))
top_20_archetypes

## # A tibble: 22 × 2
##    card_supports   count
##    <chr>           <int>
##  1 Crystal Beast     200
##  2 Elemental HERO    197
##  3 Blackwing         189
##  4 DDD               156
##  5 Six Samurai       152
##  6 Destiny HERO      133
##  7 Performapal       129
##  8 HERO              117
##  9 Gladiator Beast   111
## 10 Lightsworn         95
## # … with 12 more rows
…
